…
max_date <- tail(total$date, n=1)
us_total_cases <- format(tail(total$total_cases, n = 1), format = "f", big.mark = ",")
us_total_deaths <- format(tail(total$total_deaths, n = 1), format = "f", big.mark = ",")
total

```

```{r p1q1-sample}

# Your output should look similar to the following tibble: 
#
#   A tibble: 657 x 3
#       date          total_deaths   total_cases
#      <date>            <dbl>         <dbl>
#   1 2020-03-15           68          3595
#   2 2020-03-16           91          4502
#   3 2020-03-17          117          5901
#   4 2020-03-18          162          8345
#   5 2020-03-19          212         12387
#   6 2020-03-20          277         17998
#   7 2020-03-21          359         24507
#   8 2020-03-22          457         33050
#   9 2020-03-23          577         43474
#  10 2020-03-24          783         53899
# ... with 647 more rows
…
```

```{r p1q3-sample}

#  Your output should look similar to the following tibble: 
#  
#  date
#  total_deaths     >  the cumulative number of deaths up to and including the associated date
#  total_cases      >  the cumulative number of cases up to and including the associated date
#  delta_deaths_1   >  the number of new deaths since the previous day
#  delta_cases_1    >  the number of new cases since the previous day
#  delta_deaths_7   >  the average number of deaths in a seven-day period
#  delta_cases_7    >  the average number of cases in a seven-day period
#==
#  A tibble: 813 x 7
#    date           total_deaths   total_cases   delta_deaths_1    delta_cases_1  delta_deaths_7  delta_cases_7
#    <date>            <dbl>          <dbl>         <dbl>               <dbl>        <dbl>            <dbl>
#  1 2020-03-15           68          3600            0                     0         NA                NA 
#  2 2020-03-16           91          4507           23                   907         NA                NA 
#  3 2020-03-17          117          5906           26                  1399         NA                NA 
#  4 2020-03-18          162          8350           45                  2444         NA                NA 
#  5 2020-03-19          212         12393           50                  4043         NA                NA 
#  6 2020-03-20          277         18012           65                  5619         NA                NA 
#  7 2020-03-21          360         24528           83                  6516         NA                NA 
#  8 2020-03-22          458         33073           98                  8545       55.7              4210.
#  9 2020-03-23          579         43505          121                 10432       69.7              5571.
# 10 2020-03-24          785         53938          206                 10433       95.4              6862.
# ... with 803 more rows
…
```{r p2q1-response}

# Determine the top 10 states in terms of total deaths and cases between March 15, 2020, and December 31, 2021. To do this, transform your combined COVID-19 data to summarize total deaths and cases by state up to December 31, 2021. 




```

```{r p2q1-sample}

# Your transformed data should look similar to the following tibble:  
#
# A tibble: 51 x 4
#     state                  date       total_deaths  total_cases
#     <chr>                 <date>          <dbl>       <dbl>
#  1 California           2021-12-31        76709      5515613
#  2 Texas                2021-12-31        76062      4574881
#  3 Florida              2021-12-31        62504      4166392
#  4 New York             2021-12-31        58993      3473970
#  5 Illinois             2021-12-31        31017      2154058
#  6 Pennsylvania         2021-12-31        36705      2036424
#  7 Ohio                 2021-12-31        29447      2016095
#  8 Georgia              2021-12-31        30283      1798497
#  9 Michigan             2021-12-31        28984      1706355
# 10 North Carolina       2021-12-31        19436      1685504
# ... with 41 more rows
```
…
Determine the top 10 states in terms of deaths per 100,000 people and cases per 100,000 people between March 15, 2020, and December 31, 2021.

Once you have both lists, briefly describe your methodology and your results. Do you expect the lists to be different than the one produced in Question 1? Which method, total or per 100,000 people, is a better method for reporting the statistics? 

```{r p2q2-response}

# Determine the top 10 states in terms of deaths and cases per 100,000 people between March 15, 2020, and December 31, 2021. You should first tidy and transform the population estimates to include population totals by state. Use your relational data verbs (e.g. full_join()) to join the population estimates with the cases and death statistics using the state name as a key. Then, use case_when() and grepl() to add a population column to your table that only includes the estimated population for the associated year. Finally, mutate your table to calculate deaths and cases per 100,000 people and summarize by state. 

```

```{r p2q2-sample}

# Your transformed data should look similar to the following tibble:
#
# A tibble: 51 x 4
#     state                   date           deaths_per_100k  cases_per_100k
#     <chr>                  <date>               <dbl>          <dbl>
#  1 North Dakota          2021-12-31             265.           22482.
#  2 Alaska                2021-12-31             130.           21310.
#  3 Rhode Island          2021-12-31             280.           21093.
#  4 South Dakota          2021-12-31             278.           20014.
#  5 Wyoming               2021-12-31             264.           19979.
#  6 Tennessee             2021-12-31             296.           19783.
#  7 Kentucky              2021-12-31             269.           19173.
#  8 Florida               2021-12-31             287.           19128.
#  9 Utah                  2021-12-31             113.           19088.
# 10 Wisconsin             2021-12-31             190.           19008.
# ... with 41 more rows
```
…
Now, select a state and calculate the seven-day averages for new cases and deaths per 100,000 people. Once you have calculated the averages, create a visualization using ggplot2 to represent the data. 

```{r p2q3-response}

# Select a state and then filter by state and date range your data from Question 1. Calculate the seven-day average following the same procedure as Part 1. 


```

```{r p2q3-sample}

# Your transformed data should look similar to the following tibble: 
#
# A tibble: 656 × 9
#     state    date       total_deaths total_cases population deaths_per_100k cases_per_100k deaths_7_day  cases_7_day
#     <chr>    <date>            <dbl>    <dbl>      <dbl>         <dbl>          <dbl>        <dbl>         <dbl>
#  1 Colorado 2020-03-15            2      136      5784308        0.0346          2.35         NA            NA   
#  2 Colorado 2020-03-16            2      161      5784308        0.0346          2.78         NA            NA   
#  3 Colorado 2020-03-17            3      183      5784308        0.0519          3.16         NA            NA   
#  4 Colorado 2020-03-18            3      216      5784308        0.0519          3.73         NA            NA   
#  5 Colorado 2020-03-19            5      278      5784308        0.0864          4.81         NA            NA   
#  6 Colorado 2020-03-20            5      364      5784308        0.0864          6.29         NA            NA   
#  7 Colorado 2020-03-21            6      475      5784308        0.104           8.21         NA            NA   
#  8 Colorado 2020-03-22            7      591      5784308        0.121           10.2       0.0123         1.12
#  9 Colorado 2020-03-23           10      721      5784308        0.173           12.5       0.0198         1.38
# 10 Colorado 2020-03-24           11      912      5784308        0.190           15.8       0.0198         1.80
# … with 646 more rows
```
…
Using the same state, identify the top 5 counties in terms of deaths and cases per 100,000 people. 

```{r p2q4-response}

# Using the same state as Question 2, filter your state and date range from the combined data set from Part 1 and summarize cases and deaths. Produce two lists arranged by deaths and cases. When transforming the data, be sure to include the "fips" column as you will need this to complete Question 5. 

```

```{r p2q4-sample}

# Your transformed data should be similar to the following tibbles: 
#
# Arranged by deaths: 
# A tibble: 64 × 4
#     county       date       fips    total_deaths   total_cases
#     <chr>       <date>      <chr>       <dbl>         <dbl>
#  1 El Paso    2021-12-20    08041       1355         119772
#  2 Denver     2021-12-20    08031       1065         106747
#  3 Jefferson  2021-12-20    08059       1061         76732
#  4 Adams      2021-12-20    08001       1057         90476
#  5 Arapahoe   2021-12-20    08005       1046         95769
#  6 Pueblo     2021-12-20    08101        643         30739
#  7 Weld       2021-12-20    08123        569         55599
#  8 Mesa       2021-12-20    08077        445         29542
#  9 Larimer    2021-12-20    08069        393         47444
# 10 Douglas    2021-12-20    08035        361         48740
# … with 54 more rows
#
#
# Arranged by cases: 
# A tibble: 64 × 4
#     county       date       fips   total_deaths   total_cases
#     <chr>       <date>      <chr>     <dbl>         <dbl>
#  1 El Paso    2021-12-20    08041     1355         119772
#  2 Denver     2021-12-20    08031     1065         106747
#  3 Arapahoe   2021-12-20    08005     1046          95769
#  4 Adams      2021-12-20    08001     1057          90476
#  5 Jefferson  2021-12-20    08059     1061          76732
#  6 Weld       2021-12-20    08123      569          55599
#  7 Douglas    2021-12-20    08035      361          48740
#  8 Larimer    2021-12-20    08069      393          47444
#  9 Boulder    2021-12-20    08013      323          36754
# 10 Pueblo     2021-12-20    08101      643          30739
# … with 54 more rows
```
…
# Once you have tidied your data, join the two CSSE US data sets to include cases and deaths in one table. 


# Finally, create two visualizations with one plotting the CSSE and NY Times cases and the other plotting the CSEE and NY Times deaths.

```

```{r p3q1-sample}

# Your tidied CSSE data for your selected state should look similar to the following tibble:
#
# A tibble: 43,362 × 6
#     fips  county  state        date      cases  deaths
#     <dbl> <chr>   <chr>       <date>     <dbl>  <dbl>
#  1  8001  Adams  Colorado   2020-03-15     6      0
#  2  8001  Adams  Colorado   2020-03-16     8      0
#  3  8001  Adams  Colorado   2020-03-17    10      0
#  4  8001  Adams  Colorado   2020-03-18    10      0
#  5  8001  Adams  Colorado   2020-03-19    10      0
#  6  8001  Adams  Colorado   2020-03-20    12      0
#  7  8001  Adams  Colorado   2020-03-21    14      0
#  8  8001  Adams  Colorado   2020-03-22    18      0
#  9  8001  Adams  Colorado   2020-03-23    25      0
# 10  8001  Adams  Colorado   2020-03-24    27      0
# … with 43,352 more rows
…
